<?xml version="1.0" encoding="utf-8"?>
<svg version="1.1" id="Layer_1"
xmlns="http://www.w3.org/2000/svg"
xmlns:xlink="http://www.w3.org/1999/xlink"
width="490px" height="105px"
xml:space="preserve">
<g id="PathID_309" transform="matrix(1.66524, 0, 0, 1.66524, 206.4, 82.75)" opacity="1">
<path style="fill:#ABABAB;fill-opacity:1" d="M26.3 -29.7Q27.7 -29.7 28.9 -29.2Q30.1 -28.65 31 -27.75Q31.95 -26.8 32.45 -25.6Q32.95 -24.4 32.95 -23.05L32.95 0L27.45 0L27.45 -23.05Q27.45 -23.5 27.1 -23.85Q26.75 -24.15 26.3 -24.15L9.4 -24.15Q8.95 -24.15 8.6 -23.85Q8.3 -23.5 8.3 -23.05L8.3 0L2.75 0L2.75 -29.7L26.3 -29.7" />
</g>
<g id="PathID_310" transform="matrix(1.66524, 0, 0, 1.66524, 206.4, 82.75)" opacity="1">
</g>
<g id="PathID_311" transform="matrix(1.66524, 0, 0, 1.66524, 265.7, 82.75)" opacity="1">
<path style="fill:#ABABAB;fill-opacity:1" d="M8.55 -28.5L3 -28.5L3 -36.8L8.55 -36.8L8.55 -28.5" />
</g>
<g id="PathID_312" transform="matrix(1.66524, 0, 0, 1.66524, 265.7, 82.75)" opacity="1">
</g>
<g id="PathID_313" transform="matrix(1.37902, 0, 0, 1.73728, 298.75, 82.95)" opacity="1">
<path style="fill:#3EAFFF;fill-opacity:1" d="M9.5 -31.35Q9.05 -31.35 8.7 -31Q8.4 -30.65 8.4 -30.2L8.4 -6.65Q8.4 -6.2 8.7 -5.85Q9.05 -5.5 9.5 -5.5L39.6 -5.5L39.6 0L9.5 0Q8.15 0 6.95 -0.5Q5.75 -1 4.8 -1.95Q3.9 -2.85 3.35 -4.05Q2.85 -5.25 2.85 -6.65L2.85 -30.2Q2.85 -31.6 3.35 -32.8Q3.9 -34 4.8 -34.9Q5.75 -35.85 6.95 -36.35Q8.15 -36.85 9.5 -36.85L39.6 -36.85L39.6 -31.35L9.5 -31.35" />
</g>
<g id="PathID_314" transform="matrix(1.37902, 0, 0, 1.73728, 298.75, 82.95)" opacity="1">
</g>
<g id="PathID_315" transform="matrix(1.37902, 0, 0, 1.73728, 1.95, 82.95)" opacity="1">
<path style="fill:#3EAFFF;fill-opacity:1" d="M9.5 -31.35Q9.05 -31.35 8.7 -31Q8.4 -30.65 8.4 -30.2L8.4 -6.65Q8.4 -6.2 8.7 -5.85Q9.05 -5.5 9.5 -5.5L39.6 -5.5L39.6 0L9.5 0Q8.15 0 6.95 -0.5Q5.75 -1 4.8 -1.95Q3.9 -2.85 3.35 -4.05Q2.85 -5.25 2.85 -6.65L2.85 -30.2Q2.85 -31.6 3.35 -32.8Q3.9 -34 4.8 -34.9Q5.75 -35.85 6.95 -36.35Q8.15 -36.85 9.5 -36.85L39.6 -36.85L39.6 -31.35L9.5 -31.35" />
</g>
<g id="PathID_316" transform="matrix(1.37902, 0, 0, 1.73728, 1.95, 82.95)" opacity="1">
</g>
<g id="PathID_317" transform="matrix(1.40625, 0, 0, 1.40625, 60.1, 83.25)" opacity="1">
<path style="fill:#3EAFFF;fill-opacity:1" d="M26.15 -29.7Q27.55 -29.7 28.75 -29.2Q29.95 -28.65 30.85 -27.75Q31.8 -26.8 32.3 -25.6Q32.8 -24.4 32.8 -23.05L32.8 -6.65Q32.8 -5.25 32.3 -4.05Q31.8 -2.85 30.85 -1.95Q29.95 -1 28.75 -0.5Q27.55 0 26.15 0L9.25 0Q7.85 0 6.65 -0.5Q5.45 -1 4.55 -1.95Q3.6 -2.85 3.1 -4.05Q2.6 -5.25 2.6 -6.65L2.6 -23.05Q2.6 -24.4 3.1 -25.6Q3.6 -26.8 4.55 -27.75Q5.45 -28.65 6.65 -29.2Q7.85 -29.7 9.25 -29.7L26.15 -29.7M9.25 -24.15Q8.8 -24.15 8.45 -23.85Q8.1 -23.5 8.1 -23.05L8.1 -6.65Q8.1 -6.2 8.45 -5.85Q8.8 -5.5 9.25 -5.5L26.15 -5.5Q26.6 -5.5 26.95 -5.85Q27.3 -6.2 27.3 -6.65L27.3 -23.05Q27.3 -23.5 26.95 -23.85Q26.6 -24.15 26.15 -24.15L9.25 -24.15" />
</g>
<g id="PathID_318" transform="matrix(1.40625, 0, 0, 1.40625, 60.1, 83.25)" opacity="1">
</g>
<g id="PathID_319" transform="matrix(1.40625, 0, 0, 1.40625, 109.95, 83.25)" opacity="1">
<path style="fill:#3EAFFF;fill-opacity:1" d="M31.35 -39.4L31.35 0L7.8 0Q6.45 0 5.25 -0.5Q4.05 -1 3.1 -1.95Q2.2 -2.85 1.65 -4.05Q1.15 -5.25 1.15 -6.65L1.15 -23.05Q1.15 -24.4 1.65 -25.6Q2.2 -26.8 3.1 -27.75Q4.05 -28.65 5.25 -29.2Q6.45 -29.7 7.8 -29.7L25.85 -29.7L25.85 -39.4L31.35 -39.4M24.7 -5.5Q25.15 -5.5 25.5 -5.85Q25.85 -6.2 25.85 -6.65L25.85 -23.05Q25.85 -23.5 25.5 -23.85Q25.15 -24.15 24.7 -24.15L7.8 -24.15Q7.35 -24.15 7 -23.85Q6.7 -23.5 6.7 -23.05L6.7 -6.65Q6.7 -6.2 7 -5.85Q7.35 -5.5 7.8 -5.5L24.7 -5.5" />
</g>
<g id="PathID_320" transform="matrix(1.40625, 0, 0, 1.40625, 109.95, 83.25)" opacity="1">
</g>
<g id="PathID_321" transform="matrix(1.40625, 0, 0, 1.40625, 157.95, 83.25)" opacity="1">
<path style="fill:#3EAFFF;fill-opacity:1" d="M26.15 -29.7Q27.55 -29.7 28.75 -29.2Q29.95 -28.65 30.85 -27.75Q31.8 -26.8 32.3 -25.6Q32.8 -24.4 32.8 -23.05L32.8 -12.05L8.1 -12.05L8.1 -6.65Q8.1 -6.2 8.45 -5.85Q8.8 -5.5 9.25 -5.5L32.8 -5.5L32.8 0L9.25 0Q7.85 0 6.65 -0.5Q5.45 -1 4.55 -1.95Q3.6 -2.85 3.1 -4.05Q2.6 -5.25 2.6 -6.65L2.6 -23.05Q2.6 -24.4 3.1 -25.6Q3.6 -26.8 4.55 -27.75Q5.45 -28.65 6.65 -29.2Q7.85 -29.7 9.25 -29.7L26.15 -29.7M27.3 -17.6L27.3 -23.05Q27.3 -23.5 26.95 -23.85Q26.6 -24.15 26.15 -24.15L9.25 -24.15Q8.8 -24.15 8.45 -23.85Q8.1 -23.5 8.1 -23.05L8.1 -17.6L27.3 -17.6" />
</g>
<g id="PathID_322" transform="matrix(1.40625, 0, 0, 1.40625, 157.95, 83.25)" opacity="1">
</g>
<g id="PathID_323" transform="matrix(1.40625, 0, 0, 1.40625, 356.85, 83)" opacity="1">
<path style="fill:#3EAFFF;fill-opacity:1" d="M26.15 -29.7Q27.55 -29.7 28.75 -29.2Q29.95 -28.65 30.85 -27.75Q31.8 -26.8 32.3 -25.6Q32.8 -24.4 32.8 -23.05L32.8 -6.65Q32.8 -5.25 32.3 -4.05Q31.8 -2.85 30.85 -1.95Q29.95 -1 28.75 -0.5Q27.55 0 26.15 0L9.25 0Q7.85 0 6.65 -0.5Q5.45 -1 4.55 -1.95Q3.6 -2.85 3.1 -4.05Q2.6 -5.25 2.6 -6.65L2.6 -23.05Q2.6 -24.4 3.1 -25.6Q3.6 -26.8 4.55 -27.75Q5.45 -28.65 6.65 -29.2Q7.85 -29.7 9.25 -29.7L26.15 -29.7M9.25 -24.15Q8.8 -24.15 8.45 -23.85Q8.1 -23.5 8.1 -23.05L8.1 -6.65Q8.1 -6.2 8.45 -5.85Q8.8 -5.5 9.25 -5.5L26.15 -5.5Q26.6 -5.5 26.95 -5.85Q27.3 -6.2 27.3 -6.65L27.3 -23.05Q27.3 -23.5 26.95 -23.85Q26.6 -24.15 26.15 -24.15L9.25 -24.15" />
</g>
<g id="PathID_324" transform="matrix(1.40625, 0, 0, 1.40625, 356.85, 83)" opacity="1">
</g>
<g id="PathID_325" transform="matrix(1.40625, 0, 0, 1.40625, 406.7, 83)" opacity="1">
<path style="fill:#3EAFFF;fill-opacity:1" d="M26.3 -29.7Q27.7 -29.7 28.9 -29.2Q30.1 -28.65 31 -27.75Q31.95 -26.8 32.45 -25.6Q32.95 -24.4 32.95 -23.05L32.95 0L27.45 0L27.45 -23.05Q27.45 -23.5 27.1 -23.85Q26.75 -24.15 26.3 -24.15L9.4 -24.15Q8.95 -24.15 8.6 -23.85Q8.3 -23.5 8.3 -23.05L8.3 0L2.75 0L2.75 -29.7L26.3 -29.7" />
</g>
<g id="PathID_326" transform="matrix(1.40625, 0, 0, 1.40625, 406.7, 83)" opacity="1">
</g>
<g id="PathID_327" transform="matrix(1.40625, 0, 0, 1.40625, 456.8, 83)" opacity="1">
<path style="fill:#3EAFFF;fill-opacity:1" d="M9.35 -33.9Q8.9 -33.9 8.55 -33.55Q8.25 -33.2 8.25 -32.75L8.25 -29.7L20.4 -29.7L20.4 -24.15L8.25 -24.15L8.25 0L2.7 0L2.7 -16.35L2.7 -32.75Q2.7 -34.15 3.2 -35.35Q3.75 -36.55 4.65 -37.45Q5.6 -38.4 6.8 -38.9Q8 -39.4 9.35 -39.4L20.4 -39.4L20.4 -33.9L9.35 -33.9" />
</g>
<g id="PathID_328" transform="matrix(1.40625, 0, 0, 1.40625, 456.8, 83)" opacity="1">
</g>
</svg>
