<?xml version="1.0" encoding="utf-8"?>
<svg version="1.1" id="Layer_1"
xmlns="http://www.w3.org/2000/svg"
xmlns:xlink="http://www.w3.org/1999/xlink"
width="23px" height="22px"
xml:space="preserve">
<g id="PathID_3" transform="matrix(0.112495, 0, 0, 0.112495, 11.5, 10.95)" opacity="1">
<path style="fill:#FFC600;fill-opacity:1" d="M35.7 -38.85L101.9 -22.8L57.65 29L62.85 96.95L-0.1 70.85L-63.1 96.75L-57.75 28.85L-101.85 -23.05L-35.6 -38.95L0.1 -96.95L35.7 -38.85" />
</g>
<g id="PathID_4" transform="matrix(0.112495, 0, 0, 0.112495, 11.5, 10.95)" opacity="1">
</g>
<g id="PathID_5" transform="matrix(0.091954, 0, 0, 0.091954, 11.5, 11.1)" opacity="1">
<path style="fill:#FFFFFF;fill-opacity:1" d="M35.7 -38.85L101.9 -22.8L57.65 29L62.85 96.95L-0.1 70.85L-63.1 96.75L-57.75 28.85L-101.85 -23.05L-35.6 -38.95L0.1 -96.95L35.7 -38.85" />
</g>
<g id="PathID_6" transform="matrix(0.091954, 0, 0, 0.091954, 11.5, 11.1)" opacity="1">
</g>
</svg>
